…
#load the data
load("assess_data_22.Rdata")
#For this part we will use the inbuilt bmi dataset containing height, weight and sex data for 3200 obs of 10 variables.

#by using linear regression initially,we can consider BMI to be the response variable and height and weight to be the features

#selecting library to convert units for calculation of real BMI as weight should be in kg and height should be in m.
library(measurements)

bmi_df$height_in_m <- measurements::conv_unit(bmi_df$height, "cm", "m")#converting height from cm to m to calculate bmi
bmi_df$height_in_m <- round(bmi_df$height_in_m, digits = 2)#selecting only 2 digits after decimal
bmi_df
## # A tibble: 3,200 × 11
##      idx   age   bai   bmi body_fat density weight height   hip sex   
##    <dbl> <dbl> <dbl> <dbl>    <dbl>   <dbl>  <dbl>  <dbl> <dbl> <chr> 
##  1  2611    23  17.3  15.8      6      1.09   5.39   170.  72.6 male  
##  2  2656    21  17.9  17.2      6.6    1.08   5.78   172.  77.9 male  
##  3  2452    24  18.5  17.6      5      1.09   5.91   166.  79.6 male  
##  4  1264    43  18.4  18.3     23.5    1.05   6.02   169.  81.0 male  
##  5   730    43  22.1  16.2     21.9    1.06   6.16   164.  82.9 female
##  6  3129    43  22.1  16.2     21.9    1.06   6.16   161.  83.0 female
##  7    44    23  20.8  18.2      9.4    1.08   6.16   171.  83.0 male  
##  8  2044    28  18.5  18.4      5.4    1.09   6.17   172.  83.0 male  
##  9  2219    41  18.4  18.4     18.4    1.06   6.17   169.  83.1 male  
## 10  2693    25  21.1  18.2     12.8    1.07   6.17   168.  83.1 male  
## # … with 3,190 more rows, and 1 more variable: height_in_m <dbl>
#similarly converting weight in kg to calculate bmi
bmi_df$weight_in_kg <- measurements::conv_unit(bmi_df$weight, "stone", "kg")
bmi_df$weight_in_kg <- round(bmi_df$weight_in_kg, digits = 2)
bmi_df
## # A tibble: 3,200 × 12
##      idx   age   bai   bmi body_fat density weight height   hip sex   
##    <dbl> <dbl> <dbl> <dbl>    <dbl>   <dbl>  <dbl>  <dbl> <dbl> <chr> 
##  1  2611    23  17.3  15.8      6      1.09   5.39   170.  72.6 male  
##  2  2656    21  17.9  17.2      6.6    1.08   5.78   172.  77.9 male  
##  3  2452    24  18.5  17.6      5      1.09   5.91   166.  79.6 male  
##  4  1264    43  18.4  18.3     23.5    1.05   6.02   169.  81.0 male  
##  5   730    43  22.1  16.2     21.9    1.06   6.16   164.  82.9 female
##  6  3129    43  22.1  16.2     21.9    1.06   6.16   161.  83.0 female
##  7    44    23  20.8  18.2      9.4    1.08   6.16   171.  83.0 male  
##  8  2044    28  18.5  18.4      5.4    1.09   6.17   172.  83.0 male  
##  9  2219    41  18.4  18.4     18.4    1.06   6.17   169.  83.1 male  
## 10  2693    25  21.1  18.2     12.8    1.07   6.17   168.  83.1 male  
## # … with 3,190 more rows, and 2 more variables: height_in_m <dbl>,
## #   weight_in_kg <dbl>
…
